shift_reg.vcd
$date
  Wed Mar 28 12:02:52 2018
$end
$version
  GHDL v0
$end
$timescale
  1 fs
$end
$var reg 4 ! i[3:0] $end
$var reg 4 " o[3:0] $end
$var reg 1 # i_shift_in $end
$var reg 1 $ clk $end
$var reg 1 % enable $end
$var reg 2 & sel[1:0] $end
$scope module shift_reg_0 $end
$var reg 4 ' i[3:0] $end
$var reg 1 ( i_shift_in $end
$var reg 2 ) sel[1:0] $end
$var reg 1 * clock $end
$var reg 1 + enable $end
$var reg 4 , o[3:0] $end
$upscope $end
$enddefinitions $end
#0
b0001 !
bUUUU "
1#
0$
1%
b11 &
b0001 '
1(
b11 )
0*
1+
bUUUU ,
#5000000
b0001 "
1$
1*
b0001 ,
#10000000
0$
b01 &
b01 )
0*
#15000000
b0011 "
1$
1*
b0011 ,
#20000000
0$
b10 &
b10 )
0*
#25000000
b1000 "
1$
1*
b1000 ,
#30000000
0$
b00 &
b00 )
0*
#35000000
1$
1*
#40000000
0$
b11 &
b11 )
0*
#45000000
b0001 "
1$
1*
b0001 ,
#50000000
0$
0%
0*
0+
#55000000
1$
b10 &
b10 )
1*
#60000000
0#
0$
1%
b11 &
0(
b11 )
0*
1+
#65000000
1$
1*
#70000000
0$
b01 &
b01 )
0*
#75000000
b0010 "
1$
1*
b0010 ,
#80000000
0$
b10 &
b10 )
0*
#85000000
b0000 "
1$
1*
b0000 ,
#90000000
b1010 !
1#
0$
b11 &
b1010 '
1(
b11 )
0*
#95000000
b1010 "
1$
1*
b1010 ,
#100000000
0$
b01 &
b01 )
0*
#105000000
b0101 "
1$
1*
b0101 ,
#110000000
0$
b10 &
b10 )
0*
#115000000
b1101 "
1$
1*
b1101 ,
#120000000
0$
b00 &
b00 )
0*
#125000000
1$
1*
#130000000
0$
b11 &
b11 )
0*
#135000000
b1010 "
1$
1*
b1010 ,
#140000000
0$
0%
0*
0+
#145000000
1$
b10 &
b10 )
1*
#150000000
0#
0$
1%
b11 &
0(
b11 )
0*
1+
#155000000
1$
1*
#160000000
0$
b01 &
b01 )
0*
#165000000
b0100 "
1$
1*
b0100 ,
#170000000
0$
b10 &
b10 )
0*
#175000000
b0101 "
1$
1*
b0101 ,
