shift_reg_8bit.vcd
$date
  Wed Mar 28 15:29:30 2018
$end
$version
  GHDL v0
$end
$timescale
  1 fs
$end
$var reg 8 ! i[7:0] $end
$var reg 8 " o[7:0] $end
$var reg 1 # i_shift_in $end
$var reg 1 $ clk $end
$var reg 1 % enable $end
$var reg 2 & sel[1:0] $end
$scope module shift_reg_0 $end
$var reg 8 ' i[7:0] $end
$var reg 1 ( i_shift_in $end
$var reg 2 ) sel[1:0] $end
$var reg 1 * clock $end
$var reg 1 + enable $end
$var reg 8 , o[7:0] $end
$var reg 1 - isr1 $end
$var reg 1 . isr2 $end
$scope module sr1 $end
$var reg 4 / i[3:0] $end
$var reg 1 0 i_shift_in $end
$var reg 2 1 sel[1:0] $end
$var reg 1 2 clock $end
$var reg 1 3 enable $end
$var reg 4 4 o[3:0] $end
$upscope $end
$scope module sr2 $end
$var reg 4 5 i[3:0] $end
$var reg 1 6 i_shift_in $end
$var reg 2 7 sel[1:0] $end
$var reg 1 8 clock $end
$var reg 1 9 enable $end
$var reg 4 : o[3:0] $end
$upscope $end
$upscope $end
$enddefinitions $end
#0
b00000001 !
bUUUUUUUU "
1#
0$
1%
b11 &
b00000001 '
1(
b11 )
0*
1+
bUUUUUUUU ,
U-
U.
b0001 /
U0
b11 1
02
13
bUUUU 4
b0000 5
U6
b11 7
08
19
bUUUU :
#5000000
b00000001 "
1$
1*
b00000001 ,
12
b0001 4
18
b0000 :
#10000000
0$
b01 &
b01 )
0*
1-
0.
10
b01 1
02
06
b01 7
08
#15000000
b00000011 "
1$
1*
b00000011 ,
12
b0011 4
18
#20000000
0$
b10 &
b10 )
0*
0-
1.
00
b10 1
02
16
b10 7
08
#25000000
b10000000 "
1$
1*
b10000000 ,
12
b0000 4
18
b1000 :
#30000000
0$
b00 &
b00 )
0*
b00 1
02
b00 7
08
#35000000
1$
1*
12
18
#40000000
0$
b11 &
b11 )
0*
b11 1
02
b11 7
08
#45000000
b00000001 "
1$
1*
b00000001 ,
12
b0001 4
18
b0000 :
#50000000
0$
0%
0*
0+
02
03
08
09
#55000000
1$
b10 &
b10 )
1*
b10 1
12
b10 7
18
#60000000
0#
0$
1%
b11 &
0(
b11 )
0*
1+
b11 1
02
13
b11 7
08
19
#65000000
1$
1*
12
18
#70000000
0$
b01 &
b01 )
0*
0.
b01 1
02
06
b01 7
08
#75000000
b00000010 "
1$
1*
b00000010 ,
12
b0010 4
18
#80000000
0$
b10 &
b10 )
0*
b10 1
02
b10 7
08
#85000000
b00000000 "
1$
1*
b00000000 ,
12
b0000 4
18
#90000000
b00001010 !
1#
0$
b11 &
b00001010 '
1(
b11 )
0*
b1010 /
b11 1
02
b11 7
08
#95000000
b00001010 "
1$
1*
b00001010 ,
12
b1010 4
18
#100000000
0$
b01 &
b01 )
0*
1-
1.
10
b01 1
02
16
b01 7
08
#105000000
b00010101 "
1$
1*
b00010101 ,
12
b0101 4
18
b0001 :
#110000000
0$
b10 &
b10 )
0*
0-
00
b10 1
02
b10 7
08
#115000000
b10000101 "
1$
1*
b10000101 ,
12
18
b1000 :
#120000000
0$
b00 &
b00 )
0*
b00 1
02
b00 7
08
#125000000
1$
1*
12
18
#130000000
0$
b11 &
b11 )
0*
b11 1
02
b11 7
08
#135000000
b00001010 "
1$
1*
b00001010 ,
12
b1010 4
18
b0000 :
#140000000
0$
0%
0*
0+
02
03
08
09
#145000000
1$
b10 &
b10 )
1*
b10 1
12
b10 7
18
#150000000
0#
0$
1%
b11 &
0(
b11 )
0*
1+
b11 1
02
13
b11 7
08
19
#155000000
1$
1*
12
18
#160000000
0$
b01 &
b01 )
0*
b01 1
02
b01 7
08
#165000000
b00010100 "
1$
1*
b00010100 ,
12
b0100 4
18
b0001 :
#170000000
0$
b10 &
b10 )
0*
0.
b10 1
02
06
b10 7
08
#175000000
b00000101 "
1$
1*
b00000101 ,
12
b0101 4
18
b0000 :
